<svg width="48" height="23" viewBox="0 0 48 23" fill="none" xmlns="http://www.w3.org/2000/svg">
<path fill-rule="evenodd" clip-rule="evenodd" d="M45.2311 14.5108H45.9727V15.6935H46.3349L47.059 14.5108H47.8825L46.9365 15.9845V15.9966L47.9993 17.6037H47.1408L46.3582 16.3483H45.9727V17.6037H45.2311V14.5108ZM43.8647 15.6753C43.8589 15.263 43.6021 15.0204 43.2692 15.0204C42.8895 15.0204 42.6208 15.2814 42.5508 15.6753H43.8647ZM43.2881 14.4384C44.1407 14.4384 44.6079 15.0872 44.6079 15.9058C44.6079 16.0031 44.5961 16.106 44.5846 16.2033H42.5346C42.5813 16.7428 42.9785 17.0219 43.4282 17.0219C43.7317 17.0219 44.0413 16.8822 44.2807 16.682L44.5729 17.2342C44.2692 17.5129 43.802 17.6768 43.3756 17.6768C42.3887 17.6768 41.7695 16.9368 41.7695 16.0577C41.7695 15.1056 42.3945 14.4384 43.2881 14.4384ZM38.3684 16.9549C38.7363 16.9003 38.9933 16.5789 38.9933 15.4812V14.5108H41.1658V17.6037H40.4241V15.1356H39.6999V15.4812C39.6999 16.8274 39.3555 17.6037 38.3684 17.6341V16.9549ZM37.2762 15.6753C37.2704 15.263 37.0133 15.0204 36.6804 15.0204C36.3008 15.0204 36.0323 15.2814 35.9622 15.6753H37.2762ZM36.6982 14.4384C37.551 14.4384 38.0182 15.0872 38.0182 15.9058C38.0182 16.0031 38.0064 16.106 37.9947 16.2033H35.9449C35.9916 16.7428 36.3888 17.0219 36.8385 17.0219C37.1422 17.0219 37.4517 16.8822 37.691 16.682L37.983 17.2342C37.6793 17.5129 37.2123 17.6768 36.7858 17.6768C35.7988 17.6768 35.1798 16.9368 35.1798 16.0577C35.1798 15.1056 35.8047 14.4384 36.6982 14.4384ZM30.5943 14.5108H31.3011V16.9487H32.2297V14.5108H32.9363V16.9487H33.8649V14.5108H34.5717V17.6037H30.5943V14.5108ZM28.3636 17.0215C28.8484 17.0215 29.2513 16.6333 29.2513 16.0573C29.2513 15.4871 28.8484 15.0931 28.3636 15.0931C27.8789 15.0931 27.4818 15.4871 27.4818 16.0573C27.4818 16.6333 27.8789 17.0215 28.3636 17.0215ZM28.358 14.4384C29.2691 14.4384 29.999 15.1115 29.999 16.0577C29.999 17.0097 29.2691 17.6768 28.3638 17.6768C27.4586 17.6768 26.7287 17.0097 26.7287 16.0577C26.7287 15.1115 27.4586 14.4384 28.358 14.4384ZM23.5156 13.2983H24.2691V15.0508H24.8063L25.7815 13.2983H26.5991L25.4254 15.3482V15.3603L26.6692 17.604H25.8166L24.8063 15.7241H24.2691V17.604H23.5156V13.2983Z" fill="#293035"/>
<path fill-rule="evenodd" clip-rule="evenodd" d="M9.59316 20.5236C4.29495 20.5236 0 16.0629 0 10.5612C0 5.05967 4.29495 0.599609 9.59316 0.599609C14.8912 0.599609 19.1865 5.05967 19.1865 10.5612C19.1865 12.4307 18.6908 14.1801 17.8282 15.6748C17.8002 15.7235 17.7291 15.7066 17.7216 15.6503C17.3925 13.2022 15.9522 11.8533 13.8558 11.4599C13.6739 11.4257 13.64 11.3094 13.8806 11.2878C14.5201 11.2303 15.4313 11.24 15.8947 11.3269C15.9226 11.0758 15.9349 10.82 15.9349 10.5612C15.9349 6.9244 13.0956 3.97606 9.59316 3.97606C6.09071 3.97606 3.25157 6.9244 3.25157 10.5612C3.25157 14.1982 6.09071 17.1465 9.59316 17.1465C9.69309 17.1465 9.79233 17.1478 9.89101 17.1431C9.78522 16.5035 9.75261 15.8534 9.77184 15.3623C9.78745 14.9605 9.86592 14.9054 10.0404 15.218C10.9181 16.7885 12.1774 18.219 14.6254 18.7791C16.6269 19.2371 18.6338 19.7788 20.8037 22.6236C20.9966 22.8765 20.7022 23.1293 20.481 22.9257C18.2731 20.8944 16.2782 20.2396 14.4396 20.2396C12.3931 20.2396 10.9988 20.5236 9.59316 20.5236ZM14.4619 16.335C14.2691 16.335 14.1083 16.4048 14.0093 16.5316C13.7561 16.8561 13.8699 17.427 14.258 17.7792C14.4273 17.9327 14.6714 18.0246 14.9108 18.0246C15.1547 18.0246 15.3581 17.9296 15.4837 17.7575C15.7095 17.4431 15.5797 16.9978 15.1529 16.6231C14.9416 16.4374 14.6963 16.335 14.4619 16.335ZM16.5901 14.7047C16.4063 14.6325 16.2603 14.6901 16.1908 14.8223C16.0853 15.0223 16.1632 15.4177 16.3759 15.7623C16.5914 16.1114 16.7741 16.2885 16.9196 16.2885C17.053 16.2885 17.1858 16.1078 17.1231 15.6711C17.0857 15.4103 16.9461 14.8445 16.5901 14.7047ZM27.7732 9.52957L27.0012 8.56522C26.9202 8.4642 26.9895 8.31078 27.1162 8.31078H28.7316C28.8085 8.07299 28.852 7.81898 28.852 7.55514C28.852 6.34706 27.9861 5.30542 26.7974 5.30542C25.609 5.30542 24.7431 6.34706 24.7431 7.55514C24.7431 8.76322 25.609 9.79009 26.7974 9.79009C27.1576 9.79009 27.4875 9.69457 27.7732 9.52957ZM31.2669 11.1592C31.3507 11.2556 31.282 11.4107 31.1556 11.4107H29.3926C29.3209 11.4107 29.2529 11.3776 29.2069 11.3203L28.9082 10.9472C28.2997 11.3569 27.5751 11.596 26.7972 11.596C24.6515 11.596 22.9056 9.78323 22.9056 7.55493C22.9056 5.32664 24.6515 3.51372 26.7972 3.51372C28.9432 3.51372 30.6889 5.32664 30.6889 7.55493C30.6889 8.3582 30.461 9.10675 30.0705 9.73662L31.2669 11.1592ZM47.5508 3.69966H46.112C46.0065 3.69966 45.9206 3.78867 45.9206 3.89852V11.2113C45.9206 11.321 46.0065 11.41 46.112 11.41H47.5508C47.6563 11.41 47.7421 11.321 47.7421 11.2113V3.89852C47.7421 3.78867 47.6563 3.69966 47.5508 3.69966ZM45.1307 3.69966H43.5212C43.4368 3.69966 43.3627 3.7564 43.338 3.83933L42.0644 8.16089L40.6645 3.83455C40.6384 3.75408 40.5654 3.69966 40.4828 3.69966H39.3596C39.2772 3.69966 39.2041 3.75408 39.1781 3.83455L37.7782 8.16089L36.5044 3.83933C36.4799 3.7564 36.4056 3.69966 36.3213 3.69966H34.7117C34.6501 3.69966 34.5924 3.7302 34.5565 3.78158C34.5205 3.83296 34.5108 3.8991 34.5303 3.95931L36.8944 11.276C36.9205 11.3564 36.9936 11.4107 37.0759 11.4107H38.3534C38.4358 11.4107 38.509 11.3564 38.535 11.2761L39.9213 7.00144L41.3074 11.2761C41.3335 11.3564 41.4067 11.4107 41.489 11.4107H42.7666C42.8488 11.4107 42.9221 11.3564 42.948 11.276L45.3123 3.95931C45.3318 3.8991 45.3221 3.83296 45.2861 3.78158C45.25 3.7302 45.1923 3.69966 45.1307 3.69966ZM33.9211 3.89852V11.2113C33.9211 11.321 33.8353 11.41 33.7297 11.41H32.2909C32.1854 11.41 32.0995 11.321 32.0995 11.2113V3.89852C32.0995 3.78867 32.1854 3.69966 32.2909 3.69966H33.7297C33.8353 3.69966 33.9211 3.78867 33.9211 3.89852Z" fill="#E9832C"/>
</svg>
