<svg width="18" height="16" viewBox="0 0 18 16" fill="none" xmlns="http://www.w3.org/2000/svg">
<path d="M16.8668 5.55913C17.0444 5.38933 17.0444 5.11765 16.8668 4.96483L12.8713 1.12735C12.6937 0.95755 12.4095 0.95755 12.2497 1.12735L1.13319 11.7398C0.955605 11.9096 0.955605 12.1813 1.13319 12.3341L3.79689 14.8811C3.88568 14.966 3.99223 15 4.11654 15H5.44839H6.78024H16.5472C16.7958 15 16.9911 14.8132 16.9911 14.5755C16.9911 14.3378 16.7958 14.168 16.5472 14.168H7.84573L16.8668 5.55913ZM12.5516 2.02729L15.9256 5.25349L8.55605 12.3002L5.18202 9.07398L12.5516 2.02729ZM5.44839 14.168H4.29412L2.07436 12.0455L4.56049 9.66828L7.93452 12.8945L6.60266 14.168H5.44839Z" fill="#FE4E4E" stroke="#FE4E4E" stroke-width="0.5"/>
</svg>
