<svg width="20" height="20" viewBox="0 0 20 20" fill="none" xmlns="http://www.w3.org/2000/svg">
<mask id="path-1-inside-1" fill="white">
<path fill-rule="evenodd" clip-rule="evenodd" d="M0 10C0 12.6522 1.05357 15.1957 2.92893 17.0711C4.8043 18.9464 7.34784 20 10 20C12.6522 20 15.1957 18.9464 17.0711 17.0711C18.9464 15.1957 20 12.6522 20 10C20 7.34784 18.9464 4.8043 17.0711 2.92893C15.1957 1.05357 12.6522 0 10 0C4.47715 0 0 4.47715 0 10ZM14.78 2.41L14.5 3H11H10L8.28 2.16L8.63 1.13C9.08 1.05 9.53 1 10 1C11.76 1 13.4 1.53 14.78 2.41ZM4.63 3.69L7.19 2.41L7.53 1.38C5.92 1.84 4.5 2.73 3.38 3.94L4.63 3.69ZM14 4L16.69 7.59L15.44 10.16L12.81 10.78L9.53 6.94L11 4H14ZM3.78 11.06L5 8L4.16 4.66L2.59 4.91C1.59 6.36 1 8.1 1 10C1 10.67 1.08 11.31 1.22 11.94L3.78 11.06ZM19 10C19 11.44 18.63 12.79 18.03 14H17L16.16 10.66L17.66 7.66L18.56 7.22C18.85 8.09 19 9.03 19 10ZM11.81 11.28L9 8H6L4.53 11.69L6.84 14.78L10 14L11.81 11.28ZM13 17L12.13 18.72C11.44 18.88 10.73 19 10 19C8.25 19 6.63 18.5 5.25 17.63L6.41 15.91L10 15L13 17ZM17.5 15H17L14 17L13.31 18.34C15 17.67 16.5 16.5 17.5 15Z"/>
</mask>
<path fill-rule="evenodd" clip-rule="evenodd" d="M0 10C0 12.6522 1.05357 15.1957 2.92893 17.0711C4.8043 18.9464 7.34784 20 10 20C12.6522 20 15.1957 18.9464 17.0711 17.0711C18.9464 15.1957 20 12.6522 20 10C20 7.34784 18.9464 4.8043 17.0711 2.92893C15.1957 1.05357 12.6522 0 10 0C4.47715 0 0 4.47715 0 10ZM14.78 2.41L14.5 3H11H10L8.28 2.16L8.63 1.13C9.08 1.05 9.53 1 10 1C11.76 1 13.4 1.53 14.78 2.41ZM4.63 3.69L7.19 2.41L7.53 1.38C5.92 1.84 4.5 2.73 3.38 3.94L4.63 3.69ZM14 4L16.69 7.59L15.44 10.16L12.81 10.78L9.53 6.94L11 4H14ZM3.78 11.06L5 8L4.16 4.66L2.59 4.91C1.59 6.36 1 8.1 1 10C1 10.67 1.08 11.31 1.22 11.94L3.78 11.06ZM19 10C19 11.44 18.63 12.79 18.03 14H17L16.16 10.66L17.66 7.66L18.56 7.22C18.85 8.09 19 9.03 19 10ZM11.81 11.28L9 8H6L4.53 11.69L6.84 14.78L10 14L11.81 11.28ZM13 17L12.13 18.72C11.44 18.88 10.73 19 10 19C8.25 19 6.63 18.5 5.25 17.63L6.41 15.91L10 15L13 17ZM17.5 15H17L14 17L13.31 18.34C15 17.67 16.5 16.5 17.5 15Z" fill="#4040FF"/>
<path d="M14.5 3V3.2H14.6265L14.6807 3.08575L14.5 3ZM14.78 2.41L14.9607 2.49575L15.0364 2.33628L14.8875 2.24137L14.78 2.41ZM10 3L9.91223 3.17971L9.95377 3.2H10V3ZM8.28 2.16L8.09063 2.09565L8.03397 2.26242L8.19223 2.33971L8.28 2.16ZM8.63 1.13L8.59499 0.933087L8.47865 0.95377L8.44063 1.06565L8.63 1.13ZM7.19 2.41L7.27944 2.58889L7.35385 2.55168L7.37992 2.47269L7.19 2.41ZM4.63 3.69L4.66922 3.88612L4.69549 3.88086L4.71944 3.86889L4.63 3.69ZM7.53 1.38L7.71992 1.44269L7.83836 1.08389L7.47506 1.1877L7.53 1.38ZM3.38 3.94L3.23323 3.80414L2.81388 4.25718L3.41922 4.13612L3.38 3.94ZM16.69 7.59L16.8699 7.67748L16.9232 7.56773L16.8501 7.47007L16.69 7.59ZM14 4L14.1601 3.88007L14.1001 3.8H14V4ZM15.44 10.16L15.4859 10.3547L15.5783 10.3329L15.6199 10.2475L15.44 10.16ZM12.81 10.78L12.6579 10.9099L12.7372 11.0027L12.8559 10.9747L12.81 10.78ZM9.53 6.94L9.35111 6.85056L9.29184 6.96911L9.37792 7.0699L9.53 6.94ZM11 4V3.8H10.8764L10.8211 3.91056L11 4ZM5 8L5.18578 8.07407L5.20974 8.01397L5.19396 7.95122L5 8ZM3.78 11.06L3.84502 11.2491L3.9318 11.2193L3.96578 11.1341L3.78 11.06ZM4.16 4.66L4.35396 4.61122L4.30932 4.4337L4.12855 4.46249L4.16 4.66ZM2.59 4.91L2.55855 4.71249L2.47398 4.72596L2.42536 4.79645L2.59 4.91ZM1.22 11.94L1.02476 11.9834L1.07332 12.2019L1.28502 12.1291L1.22 11.94ZM18.03 14V14.2H18.1541L18.2092 14.0889L18.03 14ZM17 14L16.806 14.0488L16.8441 14.2H17V14ZM16.16 10.66L15.9811 10.5706L15.948 10.6369L15.966 10.7088L16.16 10.66ZM17.66 7.66L17.5722 7.48032L17.5114 7.51004L17.4811 7.57056L17.66 7.66ZM18.56 7.22L18.7497 7.15675L18.6775 6.93995L18.4722 7.04032L18.56 7.22ZM9 8L9.15188 7.86988L9.09202 7.8H9V8ZM11.81 11.28L11.9765 11.3908L12.0603 11.2648L11.9619 11.1499L11.81 11.28ZM6 8V7.8H5.86439L5.8142 7.92598L6 8ZM4.53 11.69L4.3442 11.616L4.30275 11.72L4.36981 11.8098L4.53 11.69ZM6.84 14.78L6.67981 14.8998L6.7592 15.0059L6.88793 14.9742L6.84 14.78ZM10 14L10.0479 14.1942L10.1234 14.1755L10.1665 14.1108L10 14ZM12.13 18.72L12.1752 18.9148L12.2663 18.8937L12.3085 18.8103L12.13 18.72ZM13 17L13.1785 17.0903L13.2585 16.932L13.1109 16.8336L13 17ZM5.25 17.63L5.08419 17.5182L4.96885 17.6892L5.14334 17.7992L5.25 17.63ZM6.41 15.91L6.36086 15.7161L6.28687 15.7349L6.24419 15.7982L6.41 15.91ZM10 15L10.1109 14.8336L10.037 14.7843L9.95086 14.8061L10 15ZM17 15V14.8H16.9394L16.8891 14.8336L17 15ZM17.5 15L17.6664 15.1109L17.8737 14.8H17.5V15ZM14 17L13.8891 16.8336L13.8459 16.8623L13.8222 16.9084L14 17ZM13.31 18.34L13.1322 18.2484L12.8881 18.7224L13.3837 18.5259L13.31 18.34ZM3.07035 16.9296C1.2325 15.0918 0.2 12.5991 0.2 10H-0.2C-0.2 12.7052 0.87464 15.2996 2.78751 17.2125L3.07035 16.9296ZM10 19.8C7.40088 19.8 4.90821 18.7675 3.07035 16.9296L2.78751 17.2125C4.70038 19.1254 7.29479 20.2 10 20.2V19.8ZM16.9296 16.9296C15.0918 18.7675 12.5991 19.8 10 19.8V20.2C12.7052 20.2 15.2996 19.1254 17.2125 17.2125L16.9296 16.9296ZM19.8 10C19.8 12.5991 18.7675 15.0918 16.9296 16.9296L17.2125 17.2125C19.1254 15.2996 20.2 12.7052 20.2 10H19.8ZM16.9296 3.07035C18.7675 4.90821 19.8 7.40088 19.8 10H20.2C20.2 7.29479 19.1254 4.70038 17.2125 2.78751L16.9296 3.07035ZM10 0.2C12.5991 0.2 15.0918 1.2325 16.9296 3.07035L17.2125 2.78751C15.2996 0.87464 12.7052 -0.2 10 -0.2V0.2ZM0.2 10C0.2 4.58761 4.58761 0.2 10 0.2V-0.2C4.3667 -0.2 -0.2 4.3667 -0.2 10H0.2ZM14.6807 3.08575L14.9607 2.49575L14.5993 2.32425L14.3193 2.91425L14.6807 3.08575ZM11 3.2H14.5V2.8H11V3.2ZM10 3.2H11V2.8H10V3.2ZM8.19223 2.33971L9.91223 3.17971L10.0878 2.82029L8.36777 1.98029L8.19223 2.33971ZM8.44063 1.06565L8.09063 2.09565L8.46937 2.22435L8.81937 1.19435L8.44063 1.06565ZM10 0.8C9.51559 0.8 9.05358 0.85156 8.59499 0.933087L8.66501 1.32691C9.10642 1.24844 9.54441 1.2 10 1.2V0.8ZM14.8875 2.24137C13.4777 1.34234 11.8007 0.8 10 0.8V1.2C11.7193 1.2 13.3223 1.71766 14.6725 2.57863L14.8875 2.24137ZM7.10056 2.23111L4.54056 3.51111L4.71944 3.86889L7.27944 2.58889L7.10056 2.23111ZM7.34008 1.31731L7.00008 2.34731L7.37992 2.47269L7.71992 1.44269L7.34008 1.31731ZM3.52677 4.07586C4.62255 2.89203 6.01104 2.02199 7.58494 1.5723L7.47506 1.1877C5.82896 1.65801 4.37745 2.56797 3.23323 3.80414L3.52677 4.07586ZM4.59078 3.49388L3.34078 3.74388L3.41922 4.13612L4.66922 3.88612L4.59078 3.49388ZM16.8501 7.47007L14.1601 3.88007L13.8399 4.11993L16.5299 7.70993L16.8501 7.47007ZM15.6199 10.2475L16.8699 7.67748L16.5101 7.50252L15.2601 10.0725L15.6199 10.2475ZM12.8559 10.9747L15.4859 10.3547L15.3941 9.96534L12.7641 10.5853L12.8559 10.9747ZM9.37792 7.0699L12.6579 10.9099L12.9621 10.6501L9.68207 6.8101L9.37792 7.0699ZM10.8211 3.91056L9.35111 6.85056L9.70889 7.02944L11.1789 4.08944L10.8211 3.91056ZM14 3.8H11V4.2H14V3.8ZM4.81422 7.92593L3.59422 10.9859L3.96578 11.1341L5.18578 8.07407L4.81422 7.92593ZM3.96604 4.70878L4.80604 8.04878L5.19396 7.95122L4.35396 4.61122L3.96604 4.70878ZM2.62145 5.10751L4.19145 4.85751L4.12855 4.46249L2.55855 4.71249L2.62145 5.10751ZM1.2 10C1.2 8.14252 1.77653 6.44181 2.75464 5.02355L2.42536 4.79645C1.40347 6.27819 0.8 8.05749 0.8 10H1.2ZM1.41524 11.8966C1.27802 11.2791 1.2 10.6537 1.2 10H0.8C0.8 10.6863 0.881982 11.3409 1.02476 11.9834L1.41524 11.8966ZM3.71498 10.8709L1.15498 11.7509L1.28502 12.1291L3.84502 11.2491L3.71498 10.8709ZM18.2092 14.0889C18.821 12.8551 19.2 11.4749 19.2 10H18.8C18.8 11.4051 18.439 12.7249 17.8508 13.9111L18.2092 14.0889ZM17 14.2H18.03V13.8H17V14.2ZM15.966 10.7088L16.806 14.0488L17.194 13.9512L16.354 10.6112L15.966 10.7088ZM17.4811 7.57056L15.9811 10.5706L16.3389 10.7494L17.8389 7.74944L17.4811 7.57056ZM18.4722 7.04032L17.5722 7.48032L17.7478 7.83968L18.6478 7.39968L18.4722 7.04032ZM19.2 10C19.2 9.00948 19.0468 8.04806 18.7497 7.15675L18.3703 7.28325C18.6532 8.13194 18.8 9.05052 18.8 10H19.2ZM8.84812 8.13012L11.6581 11.4101L11.9619 11.1499L9.15188 7.86988L8.84812 8.13012ZM6 8.2H9V7.8H6V8.2ZM4.7158 11.764L6.1858 8.07402L5.8142 7.92598L4.3442 11.616L4.7158 11.764ZM7.00019 14.6602L4.69019 11.5702L4.36981 11.8098L6.67981 14.8998L7.00019 14.6602ZM9.95207 13.8058L6.79207 14.5858L6.88793 14.9742L10.0479 14.1942L9.95207 13.8058ZM11.6435 11.1692L9.8335 13.8892L10.1665 14.1108L11.9765 11.3908L11.6435 11.1692ZM12.3085 18.8103L13.1785 17.0903L12.8215 16.9097L11.9515 18.6297L12.3085 18.8103ZM10 19.2C10.7514 19.2 11.4779 19.0765 12.1752 18.9148L12.0848 18.5252C11.4021 18.6835 10.7086 18.8 10 18.8V19.2ZM5.14334 17.7992C6.55426 18.6887 8.21107 19.2 10 19.2V18.8C8.28893 18.8 6.70574 18.3113 5.35666 17.4608L5.14334 17.7992ZM6.24419 15.7982L5.08419 17.5182L5.41581 17.7418L6.57581 16.0218L6.24419 15.7982ZM9.95086 14.8061L6.36086 15.7161L6.45914 16.1039L10.0491 15.1939L9.95086 14.8061ZM13.1109 16.8336L10.1109 14.8336L9.88906 15.1664L12.8891 17.1664L13.1109 16.8336ZM17 15.2H17.5V14.8H17V15.2ZM14.1109 17.1664L17.1109 15.1664L16.8891 14.8336L13.8891 16.8336L14.1109 17.1664ZM13.4878 18.4316L14.1778 17.0916L13.8222 16.9084L13.1322 18.2484L13.4878 18.4316ZM17.3336 14.8891C16.3577 16.353 14.8911 17.498 13.2363 18.1541L13.3837 18.5259C15.1089 17.842 16.6423 16.647 17.6664 15.1109L17.3336 14.8891Z" fill="#4040FF" mask="url(#path-1-inside-1)"/>
</svg>
