<svg width="20" height="20" viewBox="0 0 20 20" fill="none" xmlns="http://www.w3.org/2000/svg">
<path fill-rule="evenodd" clip-rule="evenodd" d="M17.0711 2.92893C18.9464 4.8043 20 7.34784 20 10C20 15.5228 15.5228 20 10 20C7.34784 20 4.8043 18.9464 2.92893 17.0711C1.05357 15.1957 0 12.6522 0 10C0 7.34784 1.05357 4.8043 2.92893 2.92893C4.8043 1.05357 7.34784 0 10 0C12.6522 0 15.1957 1.05357 17.0711 2.92893ZM7.23 18.04C10.23 16.07 12.5 13.05 13.46 9.5C12.71 9.55 11.97 9.65 11.27 9.81C10.18 12.89 7.97 15.44 5.13 16.97C5.77 17.42 6.5 17.78 7.23 18.04ZM17.46 10C17.81 10.11 18.16 10.23 18.5 10.37C18.35 13.64 16.36 16.44 13.54 17.73C15.39 15.53 16.76 12.9 17.46 10ZM1.56 9.04C1.5 9.35 1.5 9.68 1.5 10C1.5 12.5 2.57 14.73 4.27 16.28C4.86 16 5.41 15.66 5.94 15.29C4.08 13.54 2.58 11.41 1.56 9.04ZM8.77 12.47C6.37 10.23 4.71 7.21 4.18 3.82C4.73 3.3 5.36 2.85 6.04 2.5C6.28 5.69 7.68 8.56 9.82 10.7C9.5 11.32 9.17 11.91 8.77 12.47ZM17.96 7.03C16.7 6.68 15.37 6.5 14 6.5C12.1 6.5 10.28 6.85 8.61 7.5C8.96 8.1 9.35 8.67 9.8 9.2C11.12 8.75 12.53 8.5 14 8.5C15.57 8.5 17.08 8.78 18.47 9.29C18.4 8.5 18.23 7.74 17.96 7.03ZM10 1.5C11.44 1.5 12.79 1.87 14 2.5C11.6 2.5 9.31 2.95 7.21 3.75C7.11 3.2 7.04 2.63 7 2.05C7.94 1.7 8.95 1.5 10 1.5Z" fill="#4040FF"/>
</svg>
