<svg width="40" height="40" viewBox="0 0 40 40" fill="none" xmlns="http://www.w3.org/2000/svg">
<path d="M40 20C40 31.044 31.044 40 20 40C8.956 40 0 31.044 0 20C0 8.956 8.956 0 20 0C31.044 0 40 8.956 40 20Z" fill="#4CAF50"/>
<path d="M20 0V20L28 24L19.157 40C19.474 40 19.683 40 20 40C31.053 40 40 31.053 40 20C40 8.947 31.053 0 20 0Z" fill="#FFC107"/>
<path d="M40 20C40 31.044 31.044 40 20 40C8.956 40 0 31.044 0 20C0 8.956 8.956 0 20 0C31.044 0 40 8.956 40 20Z" fill="#4CAF50"/>
<path d="M20 0V20L28 24L19.157 40C19.474 40 19.683 40 20 40C31.053 40 40 31.053 40 20C40 8.947 31.053 0 20 0Z" fill="#FFC107"/>
<path d="M37.8399 11H19.9999V24L16.9999 23L3.15989 9.26H3.13989C6.67989 3.69 12.9099 0 19.9999 0C27.7999 0 34.5499 4.48 37.8399 11Z" fill="#F44336"/>
<path d="M3.15796 9.26392L12.001 24.1259L17 22.9999L3.15796 9.26392Z" fill="#DD2C00"/>
<path d="M19.157 40L28.091 23.941L24 21L19.157 40Z" fill="#558B2F"/>
<path d="M37.8649 11H19.9999L18.4209 15.58L37.8649 11Z" fill="#F9A825"/>
<path d="M29 20C29 24.969 24.969 29 20 29C15.031 29 11 24.969 11 20C11 15.031 15.031 11 20 11C24.969 11 29 15.031 29 20Z" fill="white"/>
<path d="M27 20C27 23.867 23.867 27 20 27C16.133 27 13 23.867 13 20C13 16.133 16.133 13 20 13C23.867 13 27 16.133 27 20Z" fill="#2196F3"/>
</svg>
