<svg width="41" height="42" viewBox="0 0 41 42" fill="none" xmlns="http://www.w3.org/2000/svg">
<path d="M20.9828 39.8672C31.3946 39.8672 39.8351 31.4212 39.8351 21.0027C39.8351 10.5841 31.3946 2.13818 20.9828 2.13818C10.571 2.13818 2.13062 10.5841 2.13062 21.0027C2.13062 31.4212 10.571 39.8672 20.9828 39.8672Z" fill="white" stroke="url(#paint0_linear)" stroke-width="2.32688"/>
<path d="M11.7892 9.02832L8.28491 12.5326L18.5284 22.7769V34.9551H23.4849V22.7637L33.716 12.5326L30.2117 9.02832L21 18.24L11.7892 9.02832Z" fill="#FF0000"/>
<defs>
<linearGradient id="paint0_linear" x1="-1331.96" y1="-629.981" x2="-1331.96" y2="-696.907" gradientUnits="userSpaceOnUse">
<stop stop-color="#D3D3D3"/>
<stop offset="1" stop-color="#FCF9F9"/>
</linearGradient>
</defs>
</svg>
