<svg width="14" height="14" viewBox="0 0 14 14" fill="none" xmlns="http://www.w3.org/2000/svg">
<mask id="path-1-outside-1" maskUnits="userSpaceOnUse" x="0" y="2.6665" width="11" height="11" fill="black">
<rect fill="white" y="2.6665" width="11" height="11"/>
<path fill-rule="evenodd" clip-rule="evenodd" d="M2.08797 3.6665H9.24536C9.8429 3.6665 10.3305 4.10986 10.3333 4.65573V12.0106C10.3333 12.5565 9.84572 12.9998 9.24536 12.9998H2.08797C1.48761 12.9998 1 12.5565 1 12.0106V4.65573C1 4.10986 1.48761 3.6665 2.08797 3.6665ZM9.3286 12.3114C9.51318 12.3114 9.66315 12.178 9.66315 12.0138V4.65276C9.66315 4.48856 9.51318 4.35514 9.3286 4.35514H2.00383C1.81924 4.35514 1.66927 4.48856 1.66927 4.65276V12.0138C1.66927 12.178 1.81924 12.3114 2.00383 12.3114H9.3286Z"/>
</mask>
<path fill-rule="evenodd" clip-rule="evenodd" d="M2.08797 3.6665H9.24536C9.8429 3.6665 10.3305 4.10986 10.3333 4.65573V12.0106C10.3333 12.5565 9.84572 12.9998 9.24536 12.9998H2.08797C1.48761 12.9998 1 12.5565 1 12.0106V4.65573C1 4.10986 1.48761 3.6665 2.08797 3.6665ZM9.3286 12.3114C9.51318 12.3114 9.66315 12.178 9.66315 12.0138V4.65276C9.66315 4.48856 9.51318 4.35514 9.3286 4.35514H2.00383C1.81924 4.35514 1.66927 4.48856 1.66927 4.65276V12.0138C1.66927 12.178 1.81924 12.3114 2.00383 12.3114H9.3286Z" fill="#708DFF"/>
<path d="M10.3333 4.65573H10.6333L10.6333 4.65418L10.3333 4.65573ZM9.24536 3.3665H2.08797V3.9665H9.24536V3.3665ZM10.6333 4.65418C10.6295 3.91847 9.98207 3.3665 9.24536 3.3665V3.9665C9.70373 3.9665 10.0315 4.30125 10.0333 4.65728L10.6333 4.65418ZM10.6333 12.0106V4.65573H10.0333V12.0106H10.6333ZM9.24536 13.2998C9.9839 13.2998 10.6333 12.7484 10.6333 12.0106H10.0333C10.0333 12.3646 9.70753 12.6998 9.24536 12.6998V13.2998ZM2.08797 13.2998H9.24536V12.6998H2.08797V13.2998ZM0.7 12.0106C0.7 12.7484 1.34943 13.2998 2.08797 13.2998V12.6998C1.6258 12.6998 1.3 12.3646 1.3 12.0106H0.7ZM0.7 4.65573V12.0106H1.3V4.65573H0.7ZM2.08797 3.3665C1.34943 3.3665 0.7 3.91795 0.7 4.65573H1.3C1.3 4.30177 1.6258 3.9665 2.08797 3.9665V3.3665ZM9.36315 12.0138C9.36315 12.0085 9.3645 12.0037 9.36596 12.0006C9.36724 11.9979 9.36782 11.9981 9.3657 12C9.3611 12.0041 9.34878 12.0114 9.3286 12.0114V12.6114C9.64491 12.6114 9.96315 12.3757 9.96315 12.0138H9.36315ZM9.36315 4.65276V12.0138H9.96315V4.65276H9.36315ZM9.3286 4.65514C9.34878 4.65514 9.3611 4.66243 9.3657 4.66652C9.36782 4.6684 9.36724 4.66861 9.36596 4.66592C9.3645 4.66286 9.36315 4.65808 9.36315 4.65276H9.96315C9.96315 4.29084 9.64491 4.05514 9.3286 4.05514V4.65514ZM2.00383 4.65514H9.3286V4.05514H2.00383V4.65514ZM1.96927 4.65276C1.96927 4.65808 1.96793 4.66286 1.96647 4.66592C1.96519 4.66861 1.96461 4.6684 1.96673 4.66652C1.97132 4.66243 1.98364 4.65514 2.00383 4.65514V4.05514C1.68752 4.05514 1.36927 4.29084 1.36927 4.65276H1.96927ZM1.96927 12.0138V4.65276H1.36927V12.0138H1.96927ZM2.00383 12.0114C1.98364 12.0114 1.97132 12.0041 1.96673 12C1.96461 11.9981 1.96519 11.9979 1.96647 12.0006C1.96793 12.0037 1.96927 12.0085 1.96927 12.0138H1.36927C1.36927 12.3757 1.68752 12.6114 2.00383 12.6114V12.0114ZM9.3286 12.0114H2.00383V12.6114H9.3286V12.0114Z" fill="#708DFF" mask="url(#path-1-outside-1)"/>
<path d="M12.0686 0.85H4.59654C3.99773 0.85 3.51602 1.34416 3.51602 1.94713C3.51602 2.21149 3.72532 2.42838 3.99146 2.42838C4.25759 2.42838 4.4669 2.21149 4.4669 1.94713C4.4669 1.87042 4.52759 1.8125 4.59654 1.8125H12.0686C12.1376 1.8125 12.1983 1.87042 12.1983 1.94713V9.3862C12.1983 9.46291 12.1376 9.52083 12.0686 9.52083C11.8025 9.52083 11.5932 9.73772 11.5932 10.0021C11.5932 10.2664 11.8025 10.4833 12.0686 10.4833C12.6674 10.4833 13.1492 9.98917 13.1492 9.3862V1.94713C13.1492 1.34416 12.6674 0.85 12.0686 0.85Z" fill="#708DFF" stroke="#708DFF" stroke-width="0.3"/>
</svg>
