<svg width="30" height="30" viewBox="0 0 30 30" fill="none" xmlns="http://www.w3.org/2000/svg">
<path fill-rule="evenodd" clip-rule="evenodd" d="M26.0193 29.0807C26.8415 29.9028 28.147 29.9304 28.9353 29.1421C29.7236 28.3538 29.6961 27.0483 28.8739 26.2261L17.6477 14.9999L28.8738 3.77381C29.696 2.95167 29.7235 1.64616 28.9352 0.857869C28.1469 0.0695716 26.8414 0.0970769 26.0193 0.919217L14.7931 12.1453L3.56695 0.919135C2.74481 0.0969933 1.4393 0.0694879 0.651005 0.857784C-0.137292 1.64608 -0.109786 2.95159 0.712355 3.77373L11.9386 14.9999L0.712279 26.2262C-0.109863 27.0483 -0.137369 28.3538 0.650928 29.1421C1.43922 29.9304 2.74473 29.9029 3.56687 29.0808L14.7931 17.8545L26.0193 29.0807Z" fill="#28465A"/>
</svg>
